บาร์คลีย์"อำลา16ปีเอ็นบีเอ. สเปอร์สโค่นเลเกอร์สส่งท้าย

วันศุกร์ ที่ 21 เมษายน พ.ศ.2543
บาร์คลีย์"อำลา16ปีเอ็นบีเอ. สเปอร์สโค่นเลเกอร์สส่งท้าย

ศึกยัดห่วงเอ็นบีเอ.ฤดูกาล 1999/ 2000 ก็เดินทางมาถึงนัดสุดท้ายของฤดูกาลปกติ 
ที่ทุกทีมลงเล่นเกมที่ 82 โดยที่ฮุสตัน มีการลงเล่นนัดอำลาของ "เซอร์" ชาร์ลส 
บาร์คลีย์ ปีกอมตะของวงการ หนึ่งในผู้เล่นดรีมทีมชุดแรก ที่ได้ปิดฉาก 16 ปีของอาชีพยัดห่วงลง 
แต่ทีมของเขากลับเล่นได้ไม่ประทับใจ พ่ายต่อ แวนคูเวอร์ กริซลีย์ส ไป 92-96

ขณะที่ "แชมป์เก่า" ซาน อันโตนิโอ สเปอร์ส ปิดฤดูกาลอย่างสวยงาม ด้วยการโค่น "เต็ง 
1" แอลเอ.เลเกอร์ส ทีมที่มีสถิติดีที่สุดไปอย่างดุเดือด 103-98 หลังการเล่นในช่วงต่อเวลา

ส่วนผลคู่อื่น บอสตัน ชนะ นิวยอร์ก 112-85, ชาร์ลอตต์ ชนะ ไมอามี 83-73, ดีทรอยต์ 
ชนะ ชิคาโก 112-91, ออร์ลันโด ชนะ โตรอนโต 106-100, อินเดียนา ชนะ แอตแลนตา 111-92, 
มิลวอกี 110-105, มินเนโซตา แพ้ ดัลลัส 107-113, ซานอันโตนิโอ ชนะ แอลเอ.เลเกอร์ส 
(ต่อเวลา) 103-98, ฮุสตัน แพ้ แวนคูเวอร์ 92-96, พอร์ตแลนด์ แพ้ เดนเวอร์ 95-96, 
ซีแอตเติล แพ้ แอลเอ. คลิปเปอร์ส 106-114, โกลเดน สเตท แพ้ ฟินิกซ์ 88-99, ยูทาห์ 
ชนะ ซาคราเมนโต 95-86 

สำหรับโปรแกรมรอบเพลย์ออฟ รอบแรกจะใช้ระบบ 3 ใน 5 เกม ใครถึง 3 เกมก่อนเป็นผู้ชนะ 
และเริ่มเกมแรกในวันที่ 22 และ 23 เม.ย. ดังนี้ สายตะวันออก อินเดียนา (1) พบ 
มิลวอกี (8), ไมอามี (2) พบ ดีทรอยต์ (7), นิวยอร์ก (3) พบ โตรอนโต (6), ชาร์ลอตต์ 
(4) พบ ฟิลาเดลเฟีย (5), สายตะวันตก แอลเอ.เลเกอร์ส (1) พบ ซาคราเมนโต (8), ยูทาห์ 
(2) พบ ซีแอตเติล (7), พอร์ตแลนด์ (3) พบ มินเนโซตา (6), ซานอันโตนิโอ (4) พบ 
ฟินิกซ์ (5) 

Krungthep Turakij Newspaper
